INDEX VERSION 1.126+/home/jbvoolstra/GitRepos/EclipseWorkspaceGDXOlga/.metadata/.plugins/org.eclipse.jdt.core
1989682271.index
4267884898.index
1714592054.index
4138182232.index
243014286.index
3034962717.index
1198206356.index
1928036885.index
3572292229.index
1514218975.index
2596775905.index
664202523.index
39589679.index
2409005450.index
1791498496.index
1022003584.index
341538411.index
1737441395.index
3829351191.index
